…
library(dplyr, warn.conflicts = FALSE)

# create a cohort for every single ingredient
df <- DBI::dbGetQuery(con, 
                      "Select * from concept where concept_class_id = 'Ingredient'") %>% 
  tibble() %>% 
  select(concept_id, concept_name) %>% 
  mutate(capr_cohort = purrr::map(concept_id, drugEraTemplate)) %>% 
  mutate(cohort_json = purrr::map_chr(capr_cohort, as.json))

df
#> # A tibble: 91 × 4
#>    concept_id concept_name    capr_cohort cohort_json                           
#>         <dbl> <chr>           <list>      <chr>                                 
#>  1    1557272 Alendronate     <Cohort>    "{\n  \"ConceptSets\": [\n    {\n    …
#>  2     708298 Midazolam       <Cohort>    "{\n  \"ConceptSets\": [\n    {\n    …
#>  3     701322 Memantine       <Cohort>    "{\n  \"ConceptSets\": [\n    {\n    …
#>  4     723013 Diazepam        <Cohort>    "{\n  \"ConceptSets\": [\n    {\n    …
#>  5    1129625 Diphenhydramine <Cohort>    "{\n  \"ConceptSets\": [\n    {\n    …
#>  6    1149196 Cetirizine      <Cohort>    "{\n  \"ConceptSets\": [\n    {\n    …
#>  7    1149380 fluticasone     <Cohort>    "{\n  \"ConceptSets\": [\n    {\n    …
#>  8    1150770 Astemizole      <Cohort>    "{\n  \"ConceptSets\": [\n    {\n    …
#>  9    1150836 Terfenadine     <Cohort>    "{\n  \"ConceptSets\": [\n    {\n    …
#> 10    1124300 Diclofenac      <Cohort>    "{\n  \"ConceptSets\": [\n    {\n    …
#> # … with 81 more rows
```
…
